Using rcrossref
…
Getting journal publications by ISSN

To get metadata for the publications themselves rather than data about the journal, we will again use the plosone_issn value in the issn = argument to cr_journals, but we now set works = TRUE (you can use a T or the full word TRUE). The default number of articles returned is 20, but you can increase or decrease that with the limit argument. The max limit is 1000, but you can get more using the cursor argument (see below). As above, we use pluck() to return only the list element called “data”, which is where the meat is.

plosone_publications <- rcrossref::cr_journals(issn = plosone_issn, works = T, limit = 25) %>%
  purrr::pluck("data")
plosone_publications

## # A tibble: 25 x 28
##    container.title created deposited published.online doi   indexed issn 
##    <chr>           <chr>   <chr>     <chr>            <chr> <chr>   <chr>
##  1 PLOS ONE        2019-0~ 2019-04-~ 2019-04-16       10.1~ 2019-0~ 1932~
##  2 PLoS ONE        2013-1~ 2018-10-~ 2013-12-03       10.1~ 2019-0~ 1932~
##  3 PLOS ONE        2015-0~ 2018-10-~ 2015-01-30       10.1~ 2019-0~ 1932~
##  4 PLoS ONE        2014-0~ 2018-10-~ 2014-09-30       10.1~ 2019-0~ 1932~
##  5 PLOS ONE        2018-0~ 2018-02-~ 2018-02-14       10.1~ 2019-0~ 1932~
##  6 PLOS ONE        2015-0~ 2017-06-~ 2015-09-17       10.1~ 2019-0~ 1932~
##  7 PLoS ONE        2013-1~ 2018-10-~ 2013-10-25       10.1~ 2019-0~ 1932~
##  8 PLOS ONE        2015-1~ 2017-06-~ 2015-11-11       10.1~ 2019-0~ 1932~
##  9 PLOS ONE        2015-1~ 2018-10-~ 2015-12-11       10.1~ 2019-0~ 1932~
## 10 PLoS ONE        2013-0~ 2018-10-~ 2013-01-24       10.1~ 2019-0~ 1932~
## # ... with 15 more rows, and 21 more variables: issue <chr>, issued <chr>,
## #   member <chr>, page <chr>, prefix <chr>, publisher <chr>,
## #   reference.count <chr>, score <chr>, source <chr>, subject <chr>,
## #   title <chr>, type <chr>, update.policy <chr>, url <chr>, volume <chr>,
## #   author <list>, link <list>, license <list>, reference <list>,
## #   funder <list>, alternative.id <chr>

You can also pass multiple ISSNs to cr_journals. Here we create 2 new values, jama_issn and jah_issn. These are ISSNs for the Journal of American History and JAMA: The Journal of the American Medical Association. We then pass them to cr_journals by passing them to the c() function, which will combine them (it’s like CONCATENATE in Excel). We set works to TRUE so we’ll get the publications metadata, and we set the limit to 50, so we’ll get 50 publications per journal.

jama_issn <- '1538-3598'
jah_issn <- '0021-8723'
jah_jama_publications <- rcrossref::cr_journals(issn = c(jama_issn, jah_issn), works = T, limit = 50) %>%
  purrr::pluck("data")
jah_jama_publications

## # A tibble: 100 x 24
##    container.title created deposited published.print doi   indexed issn 
##    <chr>           <chr>   <chr>     <chr>           <chr> <chr>   <chr>
##  1 JAMA: The Jour~ 2003-0~ 2011-03-~ 1970-08-31      10.1~ 2019-0~ 0098~
##  2 JAMA: The Jour~ 2003-0~ 2011-08-~ 1984-10-12      10.1~ 2019-0~ 0098~
##  3 JAMA: The Jour~ 2003-0~ 2011-08-~ 1968-08-19      10.1~ 2019-0~ 0098~
##  4 JAMA: The Jour~ 2003-0~ 2007-02-~ 1990-05-16      10.1~ 2019-0~ 0098~
##  5 JAMA: The Jour~ 2003-0~ 2011-08-~ 1994-06-22      10.1~ 2019-0~ 0098~
##  6 JAMA: The Jour~ 2003-0~ 2011-08-~ 1987-05-15      10.1~ 2019-0~ 0098~
##  7 JAMA: The Jour~ 2003-0~ 2011-08-~ 1975-10-13      10.1~ 2019-0~ 0098~
##  8 JAMA: The Jour~ 2003-0~ 2007-02-~ 1985-12-20      10.1~ 2019-0~ 0098~
##  9 JAMA: The Jour~ 2003-0~ 2011-04-~ 1976-12-13      10.1~ 2019-0~ 0098~
## 10 JAMA: The Jour~ 2003-0~ 2011-05-~ 1981-07-03      10.1~ 2019-0~ 0098~
## # ... with 90 more rows, and 17 more variables: issue <chr>, issued <chr>,
## #   member <chr>, page <chr>, prefix <chr>, publisher <chr>,
## #   reference.count <chr>, score <chr>, source <chr>, title <chr>,
## #   type <chr>, url <chr>, volume <chr>, author <list>, link <list>,
## #   published.online <chr>, subject <chr>

A data frame of 100 observations of 24 variables is returned. This is a rich set of metadata for the articles in the given publications. The fields are detailed in the Crossref documentation, including the field name, type, description, and whether or not it’s required. Some of these fields are title, DOI, DOI prefix identifer, ISSN, volume, issue, publisher, abstract (if provided), reference count (if provided–i.e., the number of references in the given article), link (if provided), subject (if provided), and other information. The number of citations to the article are not pulled, but these can be gathered separately with cr_citation_count() (see below).

Filtering rows and selecting columns with dplyr

You can use the filter() and select() functions from the dplyr package if you want to get subsets of this data after you have made the query. For instance, let’s say you want only volume 99, issue 4 of the Journal of American History, and then want to keep only a few columns rather than all 24:

jah_99_4 <- jah_jama_publications %>%
  dplyr::filter(issn == jah_issn,
         volume == "99",
         issue == "4") %>%
  dplyr::select(title, doi, volume, issue, page, issued, issn)
jah_99_4

## # A tibble: 45 x 7
##    title                     doi        volume issue page   issued  issn  
##    <chr>                     <chr>      <chr>  <chr> <chr>  <chr>   <chr> 
##  1 Consultants in the Class~ 10.1093/j~ 99     4     1161-~ 2013-0~ 0021-~
##  2 Building People's Histor~ 10.1093/j~ 99     4     1176-~ 2013-0~ 0021-~
##  3 The Cultural Fieldwork I~ 10.1093/j~ 99     4     1189-~ 2013-0~ 0021-~
##  4 Homesickness: An America~ 10.1093/j~ 99     4     1199-~ 2013-0~ 0021-~
##  5 The Crucible of Consent:~ 10.1093/j~ 99     4     1198-~ 2013-0~ 0021-~
##  6 The Two Faces of America~ 10.1093/j~ 99     4     1201-~ 2013-0~ 0021-~
##  7 American Exceptionalisms~ 10.1093/j~ 99     4     1202-~ 2013-0~ 0021-~
##  8 Southern Stalemate: Five~ 10.1093/j~ 99     4     1311-~ 2013-0~ 0021-~
##  9 Black Internationalist F~ 10.1093/j~ 99     4     1309-~ 2013-0~ 0021-~
## 10 ACC Basketball: The Stor~ 10.1093/j~ 99     4     1312-~ 2013-0~ 0021-~
## # ... with 35 more rows
…
For example, you may only want to pull publications from a given year, or within a date range. Remember to increase the limit or use cursor if you need to. Also notice three things about the filter argument:

The query parameter is in backticks (the key next to the 1 on the keyboard)

The query itself is in single quotes

The whole thing is wrapped in c()

jlsc_issn <- "2162-3309"
jlsc_publications_2017 <- rcrossref::cr_journals(issn = jlsc_issn, works = T, limit = 1000,
                                                 filter = c(from_pub_date='2017-08-01')) %>%
  purrr::pluck("data")
jlsc_publications_2017

## # A tibble: 48 x 21
##    container.title created deposited published.online doi   indexed issn 
##    <chr>           <chr>   <chr>     <chr>            <chr> <chr>   <chr>
##  1 Journal of Lib~ 2019-0~ 2019-04-~ 2019-04-11       10.7~ 2019-0~ 2162~
##  2 Journal of Lib~ 2019-0~ 2019-03-~ 2019-03-08       10.7~ 2019-0~ 2162~
##  3 Journal of Lib~ 2018-0~ 2018-03-~ 2018             10.7~ 2019-0~ 2162~
##  4 Journal of Lib~ 2018-0~ 2018-05-~ 2018-05-08       10.7~ 2019-0~ 2162~
##  5 Journal of Lib~ 2018-0~ 2018-04-~ 2018-04-30       10.7~ 2019-0~ 2162~
##  6 Journal of Lib~ 2018-0~ 2018-05-~ 2018-05-03       10.7~ 2019-0~ 2162~
##  7 Journal of Lib~ 2018-0~ 2018-05-~ 2018-05-25       10.7~ 2019-0~ 2162~
##  8 Journal of Lib~ 2018-0~ 2018-06-~ 2018-06-12       10.7~ 2019-0~ 2162~
##  9 Journal of Lib~ 2018-0~ 2018-06-~ 2018-06-06       10.7~ 2019-0~ 2162~
## 10 Journal of Lib~ 2018-0~ 2018-07-~ 2018-07-25       10.7~ 2019-0~ 2162~
## # ... with 38 more rows, and 14 more variables: issue <chr>, issued <chr>,
## #   member <chr>, prefix <chr>, publisher <chr>, reference.count <chr>,
## #   score <chr>, source <chr>, title <chr>, type <chr>, url <chr>,
## #   volume <chr>, author <list>, page <chr>
…
## [1] TRUE

plosone_details$deposits_licenses_current

## [1] TRUE

We can see that deposits_licenses_backfile is TRUE and deposits_licenses_current is also TRUE, meaning PLOS ONE does send licensing information and it is current. We can now rerun the query but set works = TRUE, and set the has_license to TRUE. This will therefore return only articles that have license information. We will set our limit to 25.

plosone_license <- rcrossref::cr_journals(issn = plosone_issn, works = T, limit = 25, filter = c(`has_license` = TRUE)) %>% 
  pluck("data")
plosone_license

## # A tibble: 25 x 28
##    container.title created deposited published.online doi   indexed issn 
##    <chr>           <chr>   <chr>     <chr>            <chr> <chr>   <chr>
##  1 PLOS ONE        2019-0~ 2019-04-~ 2019-04-16       10.1~ 2019-0~ 1932~
##  2 PLoS ONE        2013-1~ 2018-10-~ 2013-12-03       10.1~ 2019-0~ 1932~
##  3 PLOS ONE        2015-0~ 2018-10-~ 2015-01-30       10.1~ 2019-0~ 1932~
##  4 PLoS ONE        2014-0~ 2018-10-~ 2014-09-30       10.1~ 2019-0~ 1932~
##  5 PLOS ONE        2018-0~ 2018-02-~ 2018-02-14       10.1~ 2019-0~ 1932~
##  6 PLOS ONE        2015-0~ 2017-06-~ 2015-09-17       10.1~ 2019-0~ 1932~
##  7 PLoS ONE        2013-1~ 2018-10-~ 2013-10-25       10.1~ 2019-0~ 1932~
##  8 PLOS ONE        2015-1~ 2017-06-~ 2015-11-11       10.1~ 2019-0~ 1932~
##  9 PLOS ONE        2015-1~ 2018-10-~ 2015-12-11       10.1~ 2019-0~ 1932~
## 10 PLoS ONE        2013-0~ 2018-10-~ 2013-01-24       10.1~ 2019-0~ 1932~
## # ... with 15 more rows, and 21 more variables: issue <chr>, issued <chr>,
## #   member <chr>, page <chr>, prefix <chr>, publisher <chr>,
## #   reference.count <chr>, score <chr>, source <chr>, subject <chr>,
## #   title <chr>, type <chr>, update.policy <chr>, url <chr>, volume <chr>,
## #   author <list>, link <list>, license <list>, reference <list>,
## #   funder <list>, alternative.id <chr>

All articles in PLoS ONE are CC licensed, so we have no problem getting results. The license data comes in as a nested column. We can unnest it using tidyr::unnest, which will be discussed more below. For now, we will set .drop = FALSE, which will keep the other list columns (author, link, and funder).

plosone_license_unnested <- plosone_license %>%
  unnest(license, .drop = FALSE)
plosone_license_unnested

## # A tibble: 25 x 31
##    container.title created deposited published.online doi   indexed issn 
##    <chr>           <chr>   <chr>     <chr>            <chr> <chr>   <chr>
##  1 PLOS ONE        2019-0~ 2019-04-~ 2019-04-16       10.1~ 2019-0~ 1932~
##  2 PLoS ONE        2013-1~ 2018-10-~ 2013-12-03       10.1~ 2019-0~ 1932~
##  3 PLOS ONE        2015-0~ 2018-10-~ 2015-01-30       10.1~ 2019-0~ 1932~
##  4 PLoS ONE        2014-0~ 2018-10-~ 2014-09-30       10.1~ 2019-0~ 1932~
##  5 PLOS ONE        2018-0~ 2018-02-~ 2018-02-14       10.1~ 2019-0~ 1932~
##  6 PLOS ONE        2015-0~ 2017-06-~ 2015-09-17       10.1~ 2019-0~ 1932~
##  7 PLoS ONE        2013-1~ 2018-10-~ 2013-10-25       10.1~ 2019-0~ 1932~
##  8 PLOS ONE        2015-1~ 2017-06-~ 2015-11-11       10.1~ 2019-0~ 1932~
##  9 PLOS ONE        2015-1~ 2018-10-~ 2015-12-11       10.1~ 2019-0~ 1932~
## 10 PLoS ONE        2013-0~ 2018-10-~ 2013-01-24       10.1~ 2019-0~ 1932~
## # ... with 15 more rows, and 24 more variables: issue <chr>, issued <chr>,
## #   member <chr>, page <chr>, prefix <chr>, publisher <chr>,
## #   reference.count <chr>, score <chr>, source <chr>, subject <chr>,
## #   title <chr>, type <chr>, update.policy <chr>, url <chr>, volume <chr>,
## #   author <list>, link <list>, reference <list>, funder <list>,
## #   alternative.id <chr>, date <chr>, URL <chr>, delay.in.days <int>,
## #   content.version <chr>
…
query.affiliation

Query contributor affiliations

Field query by title

Here, we get all publications from the Journal of Librarianship and Scholarly Communication with the term “open access” in the title.

jlsc_publications_oa <- rcrossref::cr_journals(issn = jlsc_issn, works = T, limit = 1000,
                                            flq = c(`query.title` = 'open access')) %>%
  purrr::pluck("data")
jlsc_publications_oa

## # A tibble: 48 x 21
##    container.title created deposited published.online doi   indexed issn 
##    <chr>           <chr>   <chr>     <chr>            <chr> <chr>   <chr>
##  1 Journal of Lib~ 2015-0~ 2015-09-~ 2015             10.7~ 2019-0~ 2162~
##  2 Journal of Lib~ 2012-0~ 2015-09-~ 2012             10.7~ 2019-0~ 2162~
##  3 Journal of Lib~ 2013-0~ 2015-09-~ 2013             10.7~ 2019-0~ 2162~
##  4 Journal of Lib~ 2013-1~ 2015-09-~ 2013             10.7~ 2019-0~ 2162~
##  5 Journal of Lib~ 2016-0~ 2016-02-~ 2016             10.7~ 2019-0~ 2162~
##  6 Journal of Lib~ 2017-0~ 2017-04-~ 2017             10.7~ 2019-0~ 2162~
##  7 Journal of Lib~ 2012-0~ 2015-09-~ 2012             10.7~ 2019-0~ 2162~
##  8 Journal of Lib~ 2012-0~ 2015-09-~ 2012             10.7~ 2019-0~ 2162~
##  9 Journal of Lib~ 2012-0~ 2015-09-~ 2012             10.7~ 2019-0~ 2162~
## 10 Journal of Lib~ 2012-0~ 2015-09-~ 2012             10.7~ 2019-0~ 2162~
## # ... with 38 more rows, and 14 more variables: issue <chr>, issued <chr>,
## #   member <chr>, prefix <chr>, publisher <chr>, reference.count <chr>,
## #   score <chr>, source <chr>, title <chr>, type <chr>, url <chr>,
## #   volume <chr>, author <list>, page <chr>
…
These can normally be easily unnested using the unnest() function from the tidyr package. However it throws an error if there are NULL values (when the publisher hasn’t provided that data to Crossref). It looks like the tidyr developer is currently working to allow NULL while unnesting but until then, we need a solution if we want to unnest the lists.

This is a bit complicated, but you can use map_lgl to first remove (filter() out) the NULL author columns, then unnest the authors, then bind back the NULL author columns, and finally deselecting the extra author and link columns as these are no longer in the transformed, unnested data.

jah_jama_publications_auth <- jah_jama_publications %>% 
  dplyr::filter(!purrr::map_lgl(author, is.null)) %>% 
  tidyr::unnest(author, .drop = TRUE) %>% 
  dplyr::bind_rows(jah_jama_publications %>% 
                     dplyr::filter(map_lgl(author, is.null)) %>%
                     dplyr::select(-author, -link))
jah_jama_publications_auth

## # A tibble: 105 x 25
##    container.title created deposited published.print doi   indexed issn 
##    <chr>           <chr>   <chr>     <chr>           <chr> <chr>   <chr>
##  1 JAMA: The Jour~ 2003-0~ 2011-03-~ 1970-08-31      10.1~ 2019-0~ 0098~
##  2 JAMA: The Jour~ 2003-0~ 2011-08-~ 1984-10-12      10.1~ 2019-0~ 0098~
##  3 JAMA: The Jour~ 2003-0~ 2011-08-~ 1968-08-19      10.1~ 2019-0~ 0098~
##  4 JAMA: The Jour~ 2003-0~ 2007-02-~ 1990-05-16      10.1~ 2019-0~ 0098~
##  5 JAMA: The Jour~ 2003-0~ 2011-08-~ 1994-06-22      10.1~ 2019-0~ 0098~
##  6 JAMA: The Jour~ 2003-0~ 2011-08-~ 1987-05-15      10.1~ 2019-0~ 0098~
##  7 JAMA: The Jour~ 2003-0~ 2011-08-~ 1975-10-13      10.1~ 2019-0~ 0098~
##  8 JAMA: The Jour~ 2003-0~ 2011-04-~ 1976-12-13      10.1~ 2019-0~ 0098~
##  9 JAMA: The Jour~ 2003-0~ 2011-05-~ 1981-07-03      10.1~ 2019-0~ 0098~
## 10 JAMA: The Jour~ 2003-0~ 2011-08-~ 1996-09-18      10.1~ 2019-0~ 0098~
## # ... with 95 more rows, and 18 more variables: issue <chr>, issued <chr>,
## #   member <chr>, page <chr>, prefix <chr>, publisher <chr>,
## #   reference.count <chr>, score <chr>, source <chr>, title <chr>,
## #   type <chr>, url <chr>, volume <chr>, published.online <chr>,
## #   subject <chr>, given <chr>, family <chr>, sequence <chr>
…
Out of that set of 100 articles, only 3 were co-authored.

We can do the same with link, just replace “author”:

jah_jama_publications_link <- jah_jama_publications %>% 
  dplyr::filter(!purrr::map_lgl(link, is.null)) %>% 
  tidyr::unnest(link, .drop = FALSE) %>% 
  dplyr::bind_rows(jah_jama_publications %>% 
                     dplyr::filter(map_lgl(link, is.null)) %>%
                     dplyr::select(-author, -link))
jah_jama_publications_link

## # A tibble: 100 x 27
##    container.title created deposited published.print doi   indexed issn 
##    <chr>           <chr>   <chr>     <chr>           <chr> <chr>   <chr>
##  1 The Journal of~ 2006-0~ 2017-08-~ 1973-09         10.2~ 2019-0~ 0021~
##  2 The Journal of~ 2006-0~ 2017-08-~ 1969-03         10.2~ 2019-0~ 0021~
##  3 Journal of Ame~ 2013-0~ 2017-08-~ 2013-09-01      10.1~ 2019-0~ 0021~
##  4 Journal of Ame~ 2014-0~ 2017-08-~ 2014-03-01      10.1~ 2019-0~ 0021~
##  5 The Journal of~ 2008-0~ 2017-08-~ 2002-12         10.2~ 2019-0~ 0021~
##  6 Journal of Ame~ 2013-0~ 2017-08-~ 2013-03-01      10.1~ 2019-0~ 0021~
##  7 Journal of Ame~ 2013-0~ 2017-08-~ 2013-03-01      10.1~ 2019-0~ 0021~
##  8 Journal of Ame~ 2013-0~ 2017-08-~ 2013-03-01      10.1~ 2019-0~ 0021~
##  9 Journal of Ame~ 2013-0~ 2017-08-~ 2013-03-01      10.1~ 2019-0~ 0021~
## 10 Journal of Ame~ 2013-0~ 2017-08-~ 2013-03-01      10.1~ 2019-0~ 0021~
## # ... with 90 more rows, and 20 more variables: issue <chr>, issued <chr>,
## #   member <chr>, page <chr>, prefix <chr>, publisher <chr>,
## #   reference.count <chr>, score <chr>, source <chr>, title <chr>,
## #   type <chr>, url <chr>, volume <chr>, author <list>,
## #   published.online <chr>, subject <chr>, URL <chr>, content.type <chr>,
## #   content.version <chr>, intended.application <chr>
…
